Ds202_lab5
…
#8
diabetes_clean %>% group_by(frame) %>% summarise(mean.glyhb = mean(glyhb_star))

## # A tibble: 3 x 2
##   frame  mean.glyhb
##   <fct>       <dbl>
## 1 large       0.548
## 2 medium      0.497
## 3 small       0.442

diabetes_clean %>% group_by(chol) %>% summarise(mean.glyhb = mean(glyhb_star))

## # A tibble: 149 x 2
##     chol mean.glyhb
##    <int>      <dbl>
##  1    78      0.427
##  2   118      0.438
##  3   128      0.871
##  4   129      0.595
##  5   132      0.441
##  6   134      0.376
##  7   135      0.341
##  8   136      0.420
##  9   138      0.443
## 10   140      0.896
## # ... with 139 more rows
…
